%YAML 1.1
%TAG !u! tag:unity3d.com,2011:
--- !u!21 &2100000
Material:
  serializedVersion: 6
  m_ObjectHideFlags: 0
  m_CorrespondingSourceObject: {fileID: 0}
  m_PrefabInstance: {fileID: 0}
  m_PrefabAsset: {fileID: 0}
  m_Name: FurForceMat 2
  m_Shader: {fileID: 4800000, guid: 7bac536579ea247b5942c67724ee6cc7, type: 3}
  m_ShaderKeywords: 
  m_LightmapFlags: 4
  m_EnableInstancingVariants: 0
  m_DoubleSidedGI: 0
  m_CustomRenderQueue: -1
  stringTagMap: {}
  disabledShaderPasses: []
  m_SavedProperties:
    serializedVersion: 3
    m_TexEnvs:
    - _BumpMap:
        m_Texture: {fileID: 0}
        m_Scale: {x: 1, y: 1}
        m_Offset: {x: 0, y: 0}
    - _DetailAlbedoMap:
        m_Texture: {fileID: 0}
        m_Scale: {x: 1, y: 1}
        m_Offset: {x: 0, y: 0}
    - _DetailMask:
        m_Texture: {fileID: 0}
        m_Scale: {x: 1, y: 1}
        m_Offset: {x: 0, y: 0}
    - _DetailNormalMap:
        m_Texture: {fileID: 0}
        m_Scale: {x: 1, y: 1}
        m_Offset: {x: 0, y: 0}
    - _EmissionMap:
        m_Texture: {fileID: 0}
        m_Scale: {x: 1, y: 1}
        m_Offset: {x: 0, y: 0}
    - _FurTex:
        m_Texture: {fileID: 2800000, guid: 91f1dfbc4bdcf4dab8e1e11bbc9bed54, type: 3}
        m_Scale: {x: 1, y: 1}
        m_Offset: {x: 0, y: 0}
    - _MainTex:
        m_Texture: {fileID: 2800000, guid: 436656a31f9a99c4db4a349d425aeb79, type: 3}
        m_Scale: {x: 1, y: 1}
        m_Offset: {x: 0, y: 0}
    - _MetallicGlossMap:
        m_Texture: {fileID: 0}
        m_Scale: {x: 1, y: 1}
        m_Offset: {x: 0, y: 0}
    - _OcclusionMap:
        m_Texture: {fileID: 0}
        m_Scale: {x: 1, y: 1}
        m_Offset: {x: 0, y: 0}
    - _ParallaxMap:
        m_Texture: {fileID: 0}
        m_Scale: {x: 1, y: 1}
        m_Offset: {x: 0, y: 0}
    - _ReflectionCube:
        m_Texture: {fileID: 8900000, guid: 81b555ad570142040a13a3dc45012cbf, type: 3}
        m_Scale: {x: 1, y: 1}
        m_Offset: {x: 0, y: 0}
    m_Floats:
    - _Blur: 0
    - _BumpScale: 1
    - _CutOff: 0
    - _Cutoff: 0.5
    - _DetailNormalMapScale: 1
    - _Diffuse: 1
    - _DstBlend: 0
    - _EdgeFade: 0.66
    - _FurDensity: 0.869
    - _FurHardness: 1
    - _FurLength: 0.085
    - _FurShading: 0.589
    - _FurThinness: 2.19
    - _GlossMapScale: 1
    - _Glossiness: 0.5
    - _GlossyReflections: 1
    - _Metallic: 0
    - _Mode: 0
    - _OcclusionStrength: 1
    - _Parallax: 0.02
    - _Reflection: 0
    - _RimPower: 3.84
    - _Shininess: 15
    - _SmoothnessTextureChannel: 0
    - _SpecularHighlights: 1
    - _SrcBlend: 1
    - _Thickness: 0
    - _UVSec: 0
    - _ZWrite: 1
    m_Colors:
    - _Color: {r: 1, g: 1, b: 1, a: 0}
    - _EmissionColor: {r: 0, g: 0, b: 0, a: 1}
    - _ForceGlobal: {r: -0.3, g: 0, b: 0, a: 0}
    - _ForceLocal: {r: 0, g: -0.4, b: 0, a: 0}
    - _RimColor: {r: 0.5471698, g: 0.5471698, b: 0.5471698, a: 1}
    - _SpecColor: {r: 1, g: 1, b: 1, a: 1}
    - _Specular: {r: 0.3490566, g: 0.33300328, b: 0.28484336, a: 1}
  m_BuildTextureStacks: []
